%YAML 1.1
%TAG !u! tag:unity3d.com,2011:
--- !u!74 &7400000
AnimationClip:
  m_ObjectHideFlags: 0
  m_CorrespondingSourceObject: {fileID: 0}
  m_PrefabInternal: {fileID: 0}
  m_Name: attack_1_partical
  serializedVersion: 6
  m_Legacy: 0
  m_Compressed: 0
  m_UseHighQualityCurve: 1
  m_RotationCurves: []
  m_CompressedRotationCurves: []
  m_EulerCurves: []
  m_PositionCurves: []
  m_ScaleCurves: []
  m_FloatCurves: []
  m_PPtrCurves:
  - curve:
    - time: 0
      value: {fileID: 21300000, guid: c205ce048582e12428d80eeef17d1c49, type: 3}
    - time: 0.083333336
      value: {fileID: 21300000, guid: b18afad5abf0445468f9c49ffb4c7980, type: 3}
    - time: 0.16666667
      value: {fileID: 21300000, guid: 8350bf46f58f52944b8e92362c80395a, type: 3}
    - time: 0.25
      value: {fileID: 21300000, guid: 804a0ebe6661e0c459d82a5a0cf3b6ef, type: 3}
    - time: 0.33333334
      value: {fileID: 21300000, guid: c0de8318c63c35744901876e3b9844ab, type: 3}
    - time: 0.41666666
      value: {fileID: 21300000, guid: 04325fbd1e8117847901a2b3c4e0b952, type: 3}
    - time: 0.5
      value: {fileID: 21300000, guid: 64b16f9f71feef14ba4d0c42cb053141, type: 3}
    - time: 0.5833333
      value: {fileID: 21300000, guid: 379615d936a24cf4dad437441137480e, type: 3}
    - time: 0.6666667
      value: {fileID: 21300000, guid: d2dd764d8ea905246aeb5d1a8ca88496, type: 3}
    - time: 0.75
      value: {fileID: 21300000, guid: c5c3561f96605324f9ebf71ed4919d2f, type: 3}
    - time: 0.8333333
      value: {fileID: 21300000, guid: 8a4fe1e605a2cfe40bbd660ad2934575, type: 3}
    - time: 0.9166667
      value: {fileID: 21300000, guid: 8b93a97a656a00f4abb6a8a9fea73863, type: 3}
    - time: 1
      value: {fileID: 21300000, guid: bc896ebc229d17142a90b832af4db5ac, type: 3}
    - time: 1.0833334
      value: {fileID: 21300000, guid: 84476aa4e0333b0479d2ff421c28abba, type: 3}
    - time: 1.1666666
      value: {fileID: 21300000, guid: ed4a0de643a274042979003e2db3f2b4, type: 3}
    - time: 1.25
      value: {fileID: 21300000, guid: e85721b24fc200941ab74a2ecbc70574, type: 3}
    attribute: m_Sprite
    path: 
    classID: 212
    script: {fileID: 0}
  m_SampleRate: 12
  m_WrapMode: 0
  m_Bounds:
    m_Center: {x: 0, y: 0, z: 0}
    m_Extent: {x: 0, y: 0, z: 0}
  m_ClipBindingConstant:
    genericBindings:
    - serializedVersion: 2
      path: 0
      attribute: 0
      script: {fileID: 0}
      typeID: 212
      customType: 23
      isPPtrCurve: 1
    pptrCurveMapping:
    - {fileID: 21300000, guid: c205ce048582e12428d80eeef17d1c49, type: 3}
    - {fileID: 21300000, guid: b18afad5abf0445468f9c49ffb4c7980, type: 3}
    - {fileID: 21300000, guid: 8350bf46f58f52944b8e92362c80395a, type: 3}
    - {fileID: 21300000, guid: 804a0ebe6661e0c459d82a5a0cf3b6ef, type: 3}
    - {fileID: 21300000, guid: c0de8318c63c35744901876e3b9844ab, type: 3}
    - {fileID: 21300000, guid: 04325fbd1e8117847901a2b3c4e0b952, type: 3}
    - {fileID: 21300000, guid: 64b16f9f71feef14ba4d0c42cb053141, type: 3}
    - {fileID: 21300000, guid: 379615d936a24cf4dad437441137480e, type: 3}
    - {fileID: 21300000, guid: d2dd764d8ea905246aeb5d1a8ca88496, type: 3}
    - {fileID: 21300000, guid: c5c3561f96605324f9ebf71ed4919d2f, type: 3}
    - {fileID: 21300000, guid: 8a4fe1e605a2cfe40bbd660ad2934575, type: 3}
    - {fileID: 21300000, guid: 8b93a97a656a00f4abb6a8a9fea73863, type: 3}
    - {fileID: 21300000, guid: bc896ebc229d17142a90b832af4db5ac, type: 3}
    - {fileID: 21300000, guid: 84476aa4e0333b0479d2ff421c28abba, type: 3}
    - {fileID: 21300000, guid: ed4a0de643a274042979003e2db3f2b4, type: 3}
    - {fileID: 21300000, guid: e85721b24fc200941ab74a2ecbc70574, type: 3}
  m_AnimationClipSettings:
    serializedVersion: 2
    m_AdditiveReferencePoseClip: {fileID: 0}
    m_AdditiveReferencePoseTime: 0
    m_StartTime: 0
    m_StopTime: 1.3333334
    m_OrientationOffsetY: 0
    m_Level: 0
    m_CycleOffset: 0
    m_HasAdditiveReferencePose: 0
    m_LoopTime: 1
    m_LoopBlend: 0
    m_LoopBlendOrientation: 0
    m_LoopBlendPositionY: 0
    m_LoopBlendPositionXZ: 0
    m_KeepOriginalOrientation: 0
    m_KeepOriginalPositionY: 1
    m_KeepOriginalPositionXZ: 0
    m_HeightFromFeet: 0
    m_Mirror: 0
  m_EditorCurves: []
  m_EulerEditorCurves: []
  m_HasGenericRootTransform: 0
  m_HasMotionFloatCurves: 0
  m_GenerateMotionCurves: 0
  m_Events: []
