%YAML 1.1
%TAG !u! tag:unity3d.com,2011:
--- !u!74 &7400000
AnimationClip:
  m_ObjectHideFlags: 0
  m_CorrespondingSourceObject: {fileID: 0}
  m_PrefabInternal: {fileID: 0}
  m_Name: boss_gun_pt_4
  serializedVersion: 6
  m_Legacy: 0
  m_Compressed: 0
  m_UseHighQualityCurve: 1
  m_RotationCurves: []
  m_CompressedRotationCurves: []
  m_EulerCurves: []
  m_PositionCurves: []
  m_ScaleCurves: []
  m_FloatCurves: []
  m_PPtrCurves:
  - curve:
    - time: 0
      value: {fileID: 21300000, guid: b18964128194f3243991f326c52f632b, type: 3}
    - time: 0.083333336
      value: {fileID: 21300000, guid: 9a2b7b61eda182040ad6ba497806b7bf, type: 3}
    - time: 0.16666667
      value: {fileID: 21300000, guid: 488233111e7a4134c85025a7fe4c9642, type: 3}
    - time: 0.25
      value: {fileID: 21300000, guid: 264d8dfa789949948bbecd8538458b70, type: 3}
    - time: 0.33333334
      value: {fileID: 21300000, guid: da8efaed6eef65547b26333423cb8fba, type: 3}
    - time: 0.41666666
      value: {fileID: 21300000, guid: 018b6760d152a4d41b3fe049fa6c0a4e, type: 3}
    - time: 0.5
      value: {fileID: 21300000, guid: 5e1850837bbf2a14aa4495f2836c9237, type: 3}
    - time: 0.5833333
      value: {fileID: 21300000, guid: cfd172087a8cc414bb85386663c17025, type: 3}
    - time: 0.6666667
      value: {fileID: 21300000, guid: 2644e092753c38443baf5f276e372071, type: 3}
    - time: 0.75
      value: {fileID: 21300000, guid: 8df5d4089945f5a4fb5ba09a9c3cb5c4, type: 3}
    - time: 0.8333333
      value: {fileID: 21300000, guid: 491dc1b56e202c34c92ef4179021270a, type: 3}
    - time: 0.9166667
      value: {fileID: 21300000, guid: bf1a568ddf9f17145b7207f3c0164ab8, type: 3}
    - time: 1
      value: {fileID: 21300000, guid: e30be2d65b82f2e4496341a927f327b2, type: 3}
    - time: 1.0833334
      value: {fileID: 21300000, guid: 179018f8cd1e3b747b979b3406ac1f5c, type: 3}
    - time: 1.1666666
      value: {fileID: 21300000, guid: b683e7aa7dd41bd4fb224017d2e3e655, type: 3}
    - time: 1.25
      value: {fileID: 21300000, guid: 4c7bdb481edcd5b40a2f6d73b2d99c09, type: 3}
    - time: 1.3333334
      value: {fileID: 21300000, guid: 72416e22310edb24e8bf5875a5e12cb5, type: 3}
    - time: 1.4166666
      value: {fileID: 21300000, guid: cc2c9392956380348a77b6e7cb0ce6dd, type: 3}
    - time: 1.5
      value: {fileID: 21300000, guid: e6ffbfc2e5ce83147a4cc84438c28fa2, type: 3}
    - time: 1.5833334
      value: {fileID: 21300000, guid: f2fe3d99c8dface4d8b9514c593d1a00, type: 3}
    - time: 1.6666666
      value: {fileID: 21300000, guid: 5d23589c0cb16864192cb1c0d3d830b9, type: 3}
    - time: 1.75
      value: {fileID: 21300000, guid: 80350af3ef44fe44aa40d7d40448946c, type: 3}
    - time: 1.8333334
      value: {fileID: 21300000, guid: db635f2aeb8d295479135f3cf174c5f5, type: 3}
    - time: 1.9166666
      value: {fileID: 21300000, guid: 4c8533164cb7803469818246ab32e281, type: 3}
    - time: 2
      value: {fileID: 21300000, guid: a2c72c35fa9ac8a4eae2f10bed6b550d, type: 3}
    - time: 2.0833333
      value: {fileID: 21300000, guid: 2958431e006ebeb4aa491bd7e8de562a, type: 3}
    - time: 2.1666667
      value: {fileID: 21300000, guid: ad932f9d03089e8418bdd760ed033d57, type: 3}
    - time: 2.25
      value: {fileID: 21300000, guid: c861a8060f6873448885f8b0f4d69e09, type: 3}
    - time: 2.3333333
      value: {fileID: 21300000, guid: 15da643c53d75da4a800b67a8ae80ac8, type: 3}
    - time: 2.4166667
      value: {fileID: 21300000, guid: cf47212579c725f49918dfb7b7cf07df, type: 3}
    - time: 2.5
      value: {fileID: 21300000, guid: 9a08745fc0b675349b74c8955d7b761c, type: 3}
    - time: 2.5833333
      value: {fileID: 21300000, guid: 46e95d177dd8e2849a5ff2264f609e83, type: 3}
    - time: 2.6666667
      value: {fileID: 21300000, guid: c8bcf129a096f7648905bf108026af97, type: 3}
    - time: 2.75
      value: {fileID: 21300000, guid: 102a6233a81c2714d923738d79975d33, type: 3}
    - time: 2.8333333
      value: {fileID: 21300000, guid: 9f726bf91c1685846b9a69ae7a52f9f9, type: 3}
    - time: 2.9166667
      value: {fileID: 21300000, guid: c6bb74f9ffe69d840aa3a52c57e1b75b, type: 3}
    - time: 3
      value: {fileID: 21300000, guid: cb56633f4fc5d1c48a8a7b43266e40c1, type: 3}
    attribute: m_Sprite
    path: 
    classID: 212
    script: {fileID: 0}
  m_SampleRate: 12
  m_WrapMode: 0
  m_Bounds:
    m_Center: {x: 0, y: 0, z: 0}
    m_Extent: {x: 0, y: 0, z: 0}
  m_ClipBindingConstant:
    genericBindings:
    - serializedVersion: 2
      path: 0
      attribute: 0
      script: {fileID: 0}
      typeID: 212
      customType: 23
      isPPtrCurve: 1
    pptrCurveMapping:
    - {fileID: 21300000, guid: b18964128194f3243991f326c52f632b, type: 3}
    - {fileID: 21300000, guid: 9a2b7b61eda182040ad6ba497806b7bf, type: 3}
    - {fileID: 21300000, guid: 488233111e7a4134c85025a7fe4c9642, type: 3}
    - {fileID: 21300000, guid: 264d8dfa789949948bbecd8538458b70, type: 3}
    - {fileID: 21300000, guid: da8efaed6eef65547b26333423cb8fba, type: 3}
    - {fileID: 21300000, guid: 018b6760d152a4d41b3fe049fa6c0a4e, type: 3}
    - {fileID: 21300000, guid: 5e1850837bbf2a14aa4495f2836c9237, type: 3}
    - {fileID: 21300000, guid: cfd172087a8cc414bb85386663c17025, type: 3}
    - {fileID: 21300000, guid: 2644e092753c38443baf5f276e372071, type: 3}
    - {fileID: 21300000, guid: 8df5d4089945f5a4fb5ba09a9c3cb5c4, type: 3}
    - {fileID: 21300000, guid: 491dc1b56e202c34c92ef4179021270a, type: 3}
    - {fileID: 21300000, guid: bf1a568ddf9f17145b7207f3c0164ab8, type: 3}
    - {fileID: 21300000, guid: e30be2d65b82f2e4496341a927f327b2, type: 3}
    - {fileID: 21300000, guid: 179018f8cd1e3b747b979b3406ac1f5c, type: 3}
    - {fileID: 21300000, guid: b683e7aa7dd41bd4fb224017d2e3e655, type: 3}
    - {fileID: 21300000, guid: 4c7bdb481edcd5b40a2f6d73b2d99c09, type: 3}
    - {fileID: 21300000, guid: 72416e22310edb24e8bf5875a5e12cb5, type: 3}
    - {fileID: 21300000, guid: cc2c9392956380348a77b6e7cb0ce6dd, type: 3}
    - {fileID: 21300000, guid: e6ffbfc2e5ce83147a4cc84438c28fa2, type: 3}
    - {fileID: 21300000, guid: f2fe3d99c8dface4d8b9514c593d1a00, type: 3}
    - {fileID: 21300000, guid: 5d23589c0cb16864192cb1c0d3d830b9, type: 3}
    - {fileID: 21300000, guid: 80350af3ef44fe44aa40d7d40448946c, type: 3}
    - {fileID: 21300000, guid: db635f2aeb8d295479135f3cf174c5f5, type: 3}
    - {fileID: 21300000, guid: 4c8533164cb7803469818246ab32e281, type: 3}
    - {fileID: 21300000, guid: a2c72c35fa9ac8a4eae2f10bed6b550d, type: 3}
    - {fileID: 21300000, guid: 2958431e006ebeb4aa491bd7e8de562a, type: 3}
    - {fileID: 21300000, guid: ad932f9d03089e8418bdd760ed033d57, type: 3}
    - {fileID: 21300000, guid: c861a8060f6873448885f8b0f4d69e09, type: 3}
    - {fileID: 21300000, guid: 15da643c53d75da4a800b67a8ae80ac8, type: 3}
    - {fileID: 21300000, guid: cf47212579c725f49918dfb7b7cf07df, type: 3}
    - {fileID: 21300000, guid: 9a08745fc0b675349b74c8955d7b761c, type: 3}
    - {fileID: 21300000, guid: 46e95d177dd8e2849a5ff2264f609e83, type: 3}
    - {fileID: 21300000, guid: c8bcf129a096f7648905bf108026af97, type: 3}
    - {fileID: 21300000, guid: 102a6233a81c2714d923738d79975d33, type: 3}
    - {fileID: 21300000, guid: 9f726bf91c1685846b9a69ae7a52f9f9, type: 3}
    - {fileID: 21300000, guid: c6bb74f9ffe69d840aa3a52c57e1b75b, type: 3}
    - {fileID: 21300000, guid: cb56633f4fc5d1c48a8a7b43266e40c1, type: 3}
  m_AnimationClipSettings:
    serializedVersion: 2
    m_AdditiveReferencePoseClip: {fileID: 0}
    m_AdditiveReferencePoseTime: 0
    m_StartTime: 0
    m_StopTime: 3.0833333
    m_OrientationOffsetY: 0
    m_Level: 0
    m_CycleOffset: 0
    m_HasAdditiveReferencePose: 0
    m_LoopTime: 1
    m_LoopBlend: 0
    m_LoopBlendOrientation: 0
    m_LoopBlendPositionY: 0
    m_LoopBlendPositionXZ: 0
    m_KeepOriginalOrientation: 0
    m_KeepOriginalPositionY: 1
    m_KeepOriginalPositionXZ: 0
    m_HeightFromFeet: 0
    m_Mirror: 0
  m_EditorCurves: []
  m_EulerEditorCurves: []
  m_HasGenericRootTransform: 0
  m_HasMotionFloatCurves: 0
  m_GenerateMotionCurves: 0
  m_Events: []
