%YAML 1.1
%TAG !u! tag:unity3d.com,2011:
--- !u!78 &1
TagManager:
  serializedVersion: 2
  tags:
  - ground
  - Shadow
  - skill
  - forward_flash
  - around_flash
  - up_flash
  - mons
  - mons_skill
  - shadow_die
  - head
  - head_Shadow
  layers:
  - Default
  - TransparentFX
  - Ignore Raycast
  - 
  - Water
  - UI
  - 
  - 
  - shadow
  - player
  - 
  - 
  - 
  - 
  - 
  - 
  - 
  - 
  - 
  - 
  - 
  - 
  - 
  - 
  - 
  - 
  - 
  - 
  - 
  - 
  - 
  - 
  m_SortingLayers:
  - name: "\u80CC\u666F"
    uniqueID: 243397865
    locked: 0
  - name: Default
    uniqueID: 0
    locked: 0
  - name: main
    uniqueID: 1605924213
    locked: 0
  - name: "\u524D\u666F"
    uniqueID: 785864679
    locked: 0
